FSM_Counter_mod5/simulation/qsim/FSM_COUNTER_MOD5.msim.vcd
$comment
	File created using the following command:
		vcd file FSM_COUNTER_MOD5.msim.vcd -direction
$end
$date
	Fri Sep 01 18:11:37 2023
$end
$version
	ModelSim Version 10.1d
$end
$timescale
	1ps
$end
$scope module COUNTER_MOD5_V2_vlg_vec_tst $end
$var reg 1 ! CLK $end
$var reg 1 " R $end
$var wire 1 # QOUT [2] $end
$var wire 1 $ QOUT [1] $end
$var wire 1 % QOUT [0] $end
$var wire 1 & sampler $end
$scope module i1 $end
$var wire 1 ' gnd $end
$var wire 1 ( vcc $end
$var wire 1 ) unknown $end
$var tri1 1 * devclrn $end
$var tri1 1 + devpor $end
$var tri1 1 , devoe $end
$var wire 1 - CLK~combout $end
$var wire 1 . CLK~clkctrl_outclk $end
$var wire 1 / PR_STATE.DOIS~feeder_combout $end
$var wire 1 0 R~combout $end
$var wire 1 1 R~clkctrl_outclk $end
$var wire 1 2 PR_STATE.DOIS~regout $end
$var wire 1 3 PR_STATE.TRES~feeder_combout $end
$var wire 1 4 PR_STATE.TRES~regout $end
$var wire 1 5 PR_STATE.QUATRO~feeder_combout $end
$var wire 1 6 PR_STATE.QUATRO~regout $end
$var wire 1 7 PR_STATE.ZERO~0_combout $end
$var wire 1 8 PR_STATE.ZERO~regout $end
$var wire 1 9 PR_STATE.UM~0_combout $end
$var wire 1 : PR_STATE.UM~regout $end
$var wire 1 ; QOUT~4_combout $end
$var wire 1 < QOUT~5_combout $end
$upscope $end
$upscope $end
$enddefinitions $end
#0
$dumpvars
0!
0"
0%
0$
0#
x&
0'
1(
x)
1*
1+
1,
0-
0.
0/
00
01
02
03
04
05
06
17
08
19
0:
0;
0<
$end
#25000
1!
1-
1.
0&
#50000
0!
0-
0.
1&
18
1:
09
1;
1/
1%
#75000
1!
1-
1.
0&
#100000
0!
0-
0.
1&
12
0:
1<
13
0;
0/
1$
0%
#125000
1!
1-
1.
0&
#150000
0!
0-
0.
1&
02
14
03
1;
15
1%
#175000
1!
1-
1.
0&
#200000
0!
0-
0.
1&
04
16
0<
0;
05
07
1#
0$
0%
#225000
1!
1-
1.
0&
#250000
0!
0-
0.
1&
06
08
17
19
0#
#275000
1!
1-
1.
0&
#300000
0!
0-
0.
1&
18
1:
09
1;
1/
1%
#325000
1!
1-
1.
0&
#350000
0!
0-
0.
1&
12
0:
1<
13
0;
0/
1$
0%
#375000
1!
1-
1.
0&
#400000
0!
0-
0.
1&
02
14
03
1;
15
1%
#425000
1!
1-
1.
0&
#440000
1"
10
11
1&
08
04
19
0<
0;
05
0$
0%
#450000
0!
0-
0.
0&
#460000
0"
00
01
1&
#475000
1!
1-
1.
0&
#500000
0!
0-
0.
1&
18
1:
09
1;
1/
1%
#525000
1!
1-
1.
0&
#550000
0!
0-
0.
1&
12
0:
1<
13
0;
0/
1$
0%
#575000
1!
1-
1.
0&
#600000
0!
0-
0.
1&
02
14
03
1;
15
1%
#625000
1!
1-
1.
0&
#650000
0!
0-
0.
1&
04
16
0<
0;
05
07
1#
0$
0%
#675000
1!
1-
1.
0&
#700000
0!
0-
0.
1&
06
08
17
19
0#
#725000
1!
1-
1.
0&
#750000
0!
0-
0.
1&
18
1:
09
1;
1/
1%
#775000
1!
1-
1.
0&
#790000
1"
10
11
1&
0:
08
0;
0/
19
0%
#800000
0!
0-
0.
0&
#825000
1!
1-
1.
1&
#850000
0!
0-
0.
0&
#875000
1!
1-
1.
1&
#900000
0!
0-
0.
0&
#920000
0"
00
01
1&
#925000
1!
1-
1.
0&
#950000
0!
0-
0.
1&
18
1:
09
1;
1/
1%
#975000
1!
1-
1.
0&
