Semaforo_1/simulation/qsim/Semaforo.msim.vcd
$comment
	File created using the following command:
		vcd file Semaforo.msim.vcd -direction
$end
$date
	Mon May 22 21:41:11 2023
$end
$version
	ModelSim Version 10.1d
$end
$timescale
	1ps
$end
$scope module CONVERSOR_1KHZ_vlg_vec_tst $end
$var reg 1 ! CLK_I $end
$var wire 1 " CLK_O $end
$var wire 1 # sampler $end
$scope module i1 $end
$var wire 1 $ gnd $end
$var wire 1 % vcc $end
$var wire 1 & unknown $end
$var tri1 1 ' devclrn $end
$var tri1 1 ( devpor $end
$var tri1 1 ) devoe $end
$var wire 1 * Add0~10_combout $end
$var wire 1 + Add0~14_combout $end
$var wire 1 , Add0~46_combout $end
$var wire 1 - Add0~53 $end
$var wire 1 . Add0~54_combout $end
$var wire 1 / Add0~55 $end
$var wire 1 0 Add0~56_combout $end
$var wire 1 1 Add0~57 $end
$var wire 1 2 Add0~58_combout $end
$var wire 1 3 Add0~59 $end
$var wire 1 4 Add0~60_combout $end
$var wire 1 5 Equal0~0_combout $end
$var wire 1 6 Equal0~7_combout $end
$var wire 1 7 Equal0~10_combout $end
$var wire 1 8 COUNT[0]~32_combout $end
$var wire 1 9 Add0~0_combout $end
$var wire 1 : Add0~1 $end
$var wire 1 ; Add0~2_combout $end
$var wire 1 < Add0~3 $end
$var wire 1 = Add0~4_combout $end
$var wire 1 > Add0~5 $end
$var wire 1 ? Add0~6_combout $end
$var wire 1 @ Add0~7 $end
$var wire 1 A Add0~8_combout $end
$var wire 1 B Add0~9 $end
$var wire 1 C Add0~11 $end
$var wire 1 D Add0~12_combout $end
$var wire 1 E Add0~13 $end
$var wire 1 F Add0~15 $end
$var wire 1 G Add0~16_combout $end
$var wire 1 H Add0~17 $end
$var wire 1 I Add0~18_combout $end
$var wire 1 J Add0~19 $end
$var wire 1 K Add0~20_combout $end
$var wire 1 L Add0~21 $end
$var wire 1 M Add0~22_combout $end
$var wire 1 N Add0~23 $end
$var wire 1 O Add0~24_combout $end
$var wire 1 P Add0~25 $end
$var wire 1 Q Add0~26_combout $end
$var wire 1 R Add0~27 $end
$var wire 1 S Add0~28_combout $end
$var wire 1 T Add0~29 $end
$var wire 1 U Add0~30_combout $end
$var wire 1 V Add0~31 $end
$var wire 1 W Add0~32_combout $end
$var wire 1 X Add0~33 $end
$var wire 1 Y Add0~34_combout $end
$var wire 1 Z Add0~35 $end
$var wire 1 [ Add0~37 $end
$var wire 1 \ Add0~38_combout $end
$var wire 1 ] Add0~39 $end
$var wire 1 ^ Add0~41 $end
$var wire 1 _ Add0~42_combout $end
$var wire 1 ` Add0~43 $end
$var wire 1 a Add0~44_combout $end
$var wire 1 b Add0~40_combout $end
$var wire 1 c Equal0~2_combout $end
$var wire 1 d Add0~36_combout $end
$var wire 1 e Equal0~3_combout $end
$var wire 1 f Add0~45 $end
$var wire 1 g Add0~47 $end
$var wire 1 h Add0~48_combout $end
$var wire 1 i Add0~49 $end
$var wire 1 j Add0~50_combout $end
$var wire 1 k Add0~51 $end
$var wire 1 l Add0~52_combout $end
$var wire 1 m Equal0~1_combout $end
$var wire 1 n Equal0~4_combout $end
$var wire 1 o Equal0~8_combout $end
$var wire 1 p Equal0~5_combout $end
$var wire 1 q Equal0~6_combout $end
$var wire 1 r Equal0~9_combout $end
$var wire 1 s SINAL_CLK~0_combout $end
$upscope $end
$upscope $end
$enddefinitions $end
#0
$dumpvars
0!
x"
x#
0$
1%
x&
1'
1(
1)
x*
x+
x,
x-
x.
x/
x0
x1
x2
x3
x4
x5
x6
x7
x8
x9
x:
x;
x<
x=
x>
x?
x@
xA
xB
xC
xD
xE
xF
xG
xH
xI
xJ
xK
xL
xM
xN
xO
xP
xQ
xR
xS
xT
xU
xV
xW
xX
xY
xZ
x[
x\
x]
x^
x_
x`
xa
xb
xc
xd
xe
xf
xg
xh
xi
xj
xk
xl
xm
xn
xo
xp
xq
xr
xs
$end
#50
1!
0#
#100
0!
1#
#150
1!
0#
#200
0!
1#
#250
1!
0#
#300
0!
1#
#350
1!
0#
#400
0!
1#
#450
1!
0#
#500
0!
1#
#550
1!
0#
#600
0!
1#
#650
1!
0#
#700
0!
1#
#750
1!
0#
#800
0!
1#
#850
1!
0#
#900
0!
1#
#950
1!
0#
#1000
0!
1#
#1050
1!
0#
#1100
0!
1#
#1150
1!
0#
#1200
0!
1#
#1250
1!
0#
#1300
0!
1#
#1350
1!
0#
#1400
0!
1#
#1450
1!
0#
#1500
0!
1#
#1550
1!
0#
#1600
0!
1#
#1650
1!
0#
#1700
0!
1#
#1750
1!
0#
#1800
0!
1#
#1850
1!
0#
#1900
0!
1#
#1950
1!
0#
#2000
0!
1#
#2050
1!
0#
#2100
0!
1#
#2150
1!
0#
#2200
0!
1#
#2250
1!
0#
#2300
0!
1#
#2350
1!
0#
#2400
0!
1#
#2450
1!
0#
#2500
0!
1#
#2550
1!
0#
#2600
0!
1#
#2650
1!
0#
#2700
0!
1#
#2750
1!
0#
#2800
0!
1#
#2850
1!
0#
#2900
0!
1#
#2950
1!
0#
#3000
0!
1#
#3050
1!
0#
#3100
0!
1#
#3150
1!
0#
#3200
0!
1#
#3250
1!
0#
#3300
0!
1#
#3350
1!
0#
#3400
0!
1#
#3450
1!
0#
#3500
0!
1#
#3550
1!
0#
#3600
0!
1#
#3650
1!
0#
#3700
0!
1#
#3750
1!
0#
#3800
0!
1#
#3850
1!
0#
#3900
0!
1#
#3950
1!
0#
#4000
0!
1#
#4050
1!
0#
#4100
0!
1#
#4150
1!
0#
#4200
0!
1#
#4250
1!
0#
#4300
0!
1#
#4350
1!
0#
#4400
0!
1#
#4450
1!
0#
#4500
0!
1#
#4550
1!
0#
#4600
0!
1#
#4650
1!
0#
#4700
0!
1#
#4750
1!
0#
#4800
0!
1#
#4850
1!
0#
#4900
0!
1#
#4950
1!
0#
#5000
0!
1#
#5050
1!
0#
#5100
0!
1#
#5150
1!
0#
#5200
0!
1#
#5250
1!
0#
#5300
0!
1#
#5350
1!
0#
#5400
0!
1#
#5450
1!
0#
#5500
0!
1#
#5550
1!
0#
#5600
0!
1#
#5650
1!
0#
#5700
0!
1#
#5750
1!
0#
#5800
0!
1#
#5850
1!
0#
#5900
0!
1#
#5950
1!
0#
#6000
0!
1#
#6050
1!
0#
#6100
0!
1#
#6150
1!
0#
#6200
0!
1#
#6250
1!
0#
#6300
0!
1#
#6350
1!
0#
#6400
0!
1#
#6450
1!
0#
#6500
0!
1#
#6550
1!
0#
#6600
0!
1#
#6650
1!
0#
#6700
0!
1#
#6750
1!
0#
#6800
0!
1#
#6850
1!
0#
#6900
0!
1#
#6950
1!
0#
#7000
0!
1#
#7050
1!
0#
#7100
0!
1#
#7150
1!
0#
#7200
0!
1#
#7250
1!
0#
#7300
0!
1#
#7350
1!
0#
#7400
0!
1#
#7450
1!
0#
#7500
0!
1#
#7550
1!
0#
#7600
0!
1#
#7650
1!
0#
#7700
0!
1#
#7750
1!
0#
#7800
0!
1#
#7850
1!
0#
#7900
0!
1#
#7950
1!
0#
#8000
0!
1#
#8050
1!
0#
#8100
0!
1#
#8150
1!
0#
#8200
0!
1#
#8250
1!
0#
#8300
0!
1#
#8350
1!
0#
#8400
0!
1#
#8450
1!
0#
#8500
0!
1#
#8550
1!
0#
#8600
0!
1#
#8650
1!
0#
#8700
0!
1#
#8750
1!
0#
#8800
0!
1#
#8850
1!
0#
#8900
0!
1#
#8950
1!
0#
#9000
0!
1#
#9050
1!
0#
#9100
0!
1#
#9150
1!
0#
#9200
0!
1#
#9250
1!
0#
#9300
0!
1#
#9350
1!
0#
#9400
0!
1#
#9450
1!
0#
#9500
0!
1#
#9550
1!
0#
#9600
0!
1#
#9650
1!
0#
#9700
0!
1#
#9750
1!
0#
#9800
0!
1#
#9850
1!
0#
#9900
0!
1#
#9950
1!
0#
#10000
0!
1#
#10050
1!
0#
#10100
0!
1#
#10150
1!
0#
#10200
0!
1#
#10250
1!
0#
#10300
0!
1#
#10350
1!
0#
#10400
0!
1#
#10450
1!
0#
#10500
0!
1#
#10550
1!
0#
#10600
0!
1#
#10650
1!
0#
#10700
0!
1#
#10750
1!
0#
#10800
0!
1#
#10850
1!
0#
#10900
0!
1#
#10950
1!
0#
#11000
0!
1#
#11050
1!
0#
#11100
0!
1#
#11150
1!
0#
#11200
0!
1#
#11250
1!
0#
#11300
0!
1#
#11350
1!
0#
#11400
0!
1#
#11450
1!
0#
#11500
0!
1#
#11550
1!
0#
#11600
0!
1#
#11650
1!
0#
#11700
0!
1#
#11750
1!
0#
#11800
0!
1#
#11850
1!
0#
#11900
0!
1#
#11950
1!
0#
#12000
0!
1#
#12050
1!
0#
#12100
0!
1#
#12150
1!
0#
#12200
0!
1#
#12250
1!
0#
#12300
0!
1#
#12350
1!
0#
#12400
0!
1#
#12450
1!
0#
#12500
0!
1#
#12550
1!
0#
#12600
0!
1#
#12650
1!
0#
#12700
0!
1#
#12750
1!
0#
#12800
0!
1#
#12850
1!
0#
#12900
0!
1#
#12950
1!
0#
#13000
0!
1#
#13050
1!
0#
#13100
0!
1#
#13150
1!
0#
#13200
0!
1#
#13250
1!
0#
#13300
0!
1#
#13350
1!
0#
#13400
0!
1#
#13450
1!
0#
#13500
0!
1#
#13550
1!
0#
#13600
0!
1#
#13650
1!
0#
#13700
0!
1#
#13750
1!
0#
#13800
0!
1#
#13850
1!
0#
#13900
0!
1#
#13950
1!
0#
#14000
0!
1#
#14050
1!
0#
#14100
0!
1#
#14150
1!
0#
#14200
0!
1#
#14250
1!
0#
#14300
0!
1#
#14350
1!
0#
#14400
0!
1#
#14450
1!
0#
#14500
0!
1#
#14550
1!
0#
#14600
0!
1#
#14650
1!
0#
#14700
0!
1#
#14750
1!
0#
#14800
0!
1#
#14850
1!
0#
#14900
0!
1#
#14950
1!
0#
#15000
0!
1#
#15050
1!
0#
#15100
0!
1#
#15150
1!
0#
#15200
0!
1#
#15250
1!
0#
#15300
0!
1#
#15350
1!
0#
#15400
0!
1#
#15450
1!
0#
#15500
0!
1#
#15550
1!
0#
#15600
0!
1#
#15650
1!
0#
#15700
0!
1#
#15750
1!
0#
#15800
0!
1#
#15850
1!
0#
#15900
0!
1#
#15950
1!
0#
#16000
0!
1#
#16050
1!
0#
#16100
0!
1#
#16150
1!
0#
#16200
0!
1#
#16250
1!
0#
#16300
0!
1#
#16350
1!
0#
#16400
0!
1#
#16450
1!
0#
#16500
0!
1#
#16550
1!
0#
#16600
0!
1#
#16650
1!
0#
#16700
0!
1#
#16750
1!
0#
#16800
0!
1#
#16850
1!
0#
#16900
0!
1#
#16950
1!
0#
#17000
0!
1#
#17050
1!
0#
#17100
0!
1#
#17150
1!
0#
#17200
0!
1#
#17250
1!
0#
#17300
0!
1#
#17350
1!
0#
#17400
0!
1#
#17450
1!
0#
#17500
0!
1#
#17550
1!
0#
#17600
0!
1#
#17650
1!
0#
#17700
0!
1#
#17750
1!
0#
#17800
0!
1#
#17850
1!
0#
#17900
0!
1#
#17950
1!
0#
#18000
0!
1#
#18050
1!
0#
#18100
0!
1#
#18150
1!
0#
#18200
0!
1#
#18250
1!
0#
#18300
0!
1#
#18350
1!
0#
#18400
0!
1#
#18450
1!
0#
#18500
0!
1#
#18550
1!
0#
#18600
0!
1#
#18650
1!
0#
#18700
0!
1#
#18750
1!
0#
#18800
0!
1#
#18850
1!
0#
#18900
0!
1#
#18950
1!
0#
#19000
0!
1#
#19050
1!
0#
#19100
0!
1#
#19150
1!
0#
#19200
0!
1#
#19250
1!
0#
#19300
0!
1#
#19350
1!
0#
#19400
0!
1#
#19450
1!
0#
#19500
0!
1#
#19550
1!
0#
#19600
0!
1#
#19650
1!
0#
#19700
0!
1#
#19750
1!
0#
#19800
0!
1#
#19850
1!
0#
#19900
0!
1#
#19950
1!
0#
#20000
0!
1#
#20050
1!
0#
#20100
0!
1#
#20150
1!
0#
#20200
0!
1#
#20250
1!
0#
#20300
0!
1#
#20350
1!
0#
#20400
0!
1#
#20450
1!
0#
#20500
0!
1#
#20550
1!
0#
#20600
0!
1#
#20650
1!
0#
#20700
0!
1#
#20750
1!
0#
#20800
0!
1#
#20850
1!
0#
#20900
0!
1#
#20950
1!
0#
#21000
0!
1#
#21050
1!
0#
#21100
0!
1#
#21150
1!
0#
#21200
0!
1#
#21250
1!
0#
#21300
0!
1#
#21350
1!
0#
#21400
0!
1#
#21450
1!
0#
#21500
0!
1#
#21550
1!
0#
#21600
0!
1#
#21650
1!
0#
#21700
0!
1#
#21750
1!
0#
#21800
0!
1#
#21850
1!
0#
#21900
0!
1#
#21950
1!
0#
#22000
0!
1#
#22050
1!
0#
#22100
0!
1#
#22150
1!
0#
#22200
0!
1#
#22250
1!
0#
#22300
0!
1#
#22350
1!
0#
#22400
0!
1#
#22450
1!
0#
#22500
0!
1#
#22550
1!
0#
#22600
0!
1#
#22650
1!
0#
#22700
0!
1#
#22750
1!
0#
#22800
0!
1#
#22850
1!
0#
#22900
0!
1#
#22950
1!
0#
#23000
0!
1#
#23050
1!
0#
#23100
0!
1#
#23150
1!
0#
#23200
0!
1#
#23250
1!
0#
#23300
0!
1#
#23350
1!
0#
#23400
0!
1#
#23450
1!
0#
#23500
0!
1#
#23550
1!
0#
#23600
0!
1#
#23650
1!
0#
#23700
0!
1#
#23750
1!
0#
#23800
0!
1#
#23850
1!
0#
#23900
0!
1#
#23950
1!
0#
#24000
0!
1#
#24050
1!
0#
#24100
0!
1#
#24150
1!
0#
#24200
0!
1#
#24250
1!
0#
#24300
0!
1#
#24350
1!
0#
#24400
0!
1#
#24450
1!
0#
#24500
0!
1#
#24550
1!
0#
#24600
0!
1#
#24650
1!
0#
#24700
0!
1#
#24750
1!
0#
#24800
0!
1#
#24850
1!
0#
#24900
0!
1#
#24950
1!
0#
#25000
0!
1#
#25050
1!
0#
#25100
0!
1#
#25150
1!
0#
#25200
0!
1#
#25250
1!
0#
#25300
0!
1#
#25350
1!
0#
#25400
0!
1#
#25450
1!
0#
#25500
0!
1#
#25550
1!
0#
#25600
0!
1#
#25650
1!
0#
#25700
0!
1#
#25750
1!
0#
#25800
0!
1#
#25850
1!
0#
#25900
0!
1#
#25950
1!
0#
#26000
0!
1#
#26050
1!
0#
#26100
0!
1#
#26150
1!
0#
#26200
0!
1#
#26250
1!
0#
#26300
0!
1#
#26350
1!
0#
#26400
0!
1#
#26450
1!
0#
#26500
0!
1#
#26550
1!
0#
#26600
0!
1#
#26650
1!
0#
#26700
0!
1#
#26750
1!
0#
#26800
0!
1#
#26850
1!
0#
#26900
0!
1#
#26950
1!
0#
#27000
0!
1#
#27050
1!
0#
#27100
0!
1#
#27150
1!
0#
#27200
0!
1#
#27250
1!
0#
#27300
0!
1#
#27350
1!
0#
#27400
0!
1#
#27450
1!
0#
#27500
0!
1#
#27550
1!
0#
#27600
0!
1#
#27650
1!
0#
#27700
0!
1#
#27750
1!
0#
#27800
0!
1#
#27850
1!
0#
#27900
0!
1#
#27950
1!
0#
#28000
0!
1#
#28050
1!
0#
#28100
0!
1#
#28150
1!
0#
#28200
0!
1#
#28250
1!
0#
#28300
0!
1#
#28350
1!
0#
#28400
0!
1#
#28450
1!
0#
#28500
0!
1#
#28550
1!
0#
#28600
0!
1#
#28650
1!
0#
#28700
0!
1#
#28750
1!
0#
#28800
0!
1#
#28850
1!
0#
#28900
0!
1#
#28950
1!
0#
#29000
0!
1#
#29050
1!
0#
#29100
0!
1#
#29150
1!
0#
#29200
0!
1#
#29250
1!
0#
#29300
0!
1#
#29350
1!
0#
#29400
0!
1#
#29450
1!
0#
#29500
0!
1#
#29550
1!
0#
#29600
0!
1#
#29650
1!
0#
#29700
0!
1#
#29750
1!
0#
#29800
0!
1#
#29850
1!
0#
#29900
0!
1#
#29950
1!
0#
#30000
0!
1#
#30050
1!
0#
#30100
0!
1#
#30150
1!
0#
#30200
0!
1#
#30250
1!
0#
#30300
0!
1#
#30350
1!
0#
#30400
0!
1#
#30450
1!
0#
#30500
0!
1#
#30550
1!
0#
#30600
0!
1#
#30650
1!
0#
#30700
0!
1#
#30750
1!
0#
#30800
0!
1#
#30850
1!
0#
#30900
0!
1#
#30950
1!
0#
#31000
0!
1#
#31050
1!
0#
#31100
0!
1#
#31150
1!
0#
#31200
0!
1#
#31250
1!
0#
#31300
0!
1#
#31350
1!
0#
#31400
0!
1#
#31450
1!
0#
#31500
0!
1#
#31550
1!
0#
#31600
0!
1#
#31650
1!
0#
#31700
0!
1#
#31750
1!
0#
#31800
0!
1#
#31850
1!
0#
#31900
0!
1#
#31950
1!
0#
#32000
0!
1#
#32050
1!
0#
#32100
0!
1#
#32150
1!
0#
#32200
0!
1#
#32250
1!
0#
#32300
0!
1#
#32350
1!
0#
#32400
0!
1#
#32450
1!
0#
#32500
0!
1#
#32550
1!
0#
#32600
0!
1#
#32650
1!
0#
#32700
0!
1#
#32750
1!
0#
#32800
0!
1#
#32850
1!
0#
#32900
0!
1#
#32950
1!
0#
#33000
0!
1#
#33050
1!
0#
#33100
0!
1#
#33150
1!
0#
#33200
0!
1#
#33250
1!
0#
#33300
0!
1#
#33350
1!
0#
#33400
0!
1#
#33450
1!
0#
#33500
0!
1#
#33550
1!
0#
#33600
0!
1#
#33650
1!
0#
#33700
0!
1#
#33750
1!
0#
#33800
0!
1#
#33850
1!
0#
#33900
0!
1#
#33950
1!
0#
#34000
0!
1#
#34050
1!
0#
#34100
0!
1#
#34150
1!
0#
#34200
0!
1#
#34250
1!
0#
#34300
0!
1#
#34350
1!
0#
#34400
0!
1#
#34450
1!
0#
#34500
0!
1#
#34550
1!
0#
#34600
0!
1#
#34650
1!
0#
#34700
0!
1#
#34750
1!
0#
#34800
0!
1#
#34850
1!
0#
#34900
0!
1#
#34950
1!
0#
#35000
0!
1#
#35050
1!
0#
#35100
0!
1#
#35150
1!
0#
#35200
0!
1#
#35250
1!
0#
#35300
0!
1#
#35350
1!
0#
#35400
0!
1#
#35450
1!
0#
#35500
0!
1#
#35550
1!
0#
#35600
0!
1#
#35650
1!
0#
#35700
0!
1#
#35750
1!
0#
#35800
0!
1#
#35850
1!
0#
#35900
0!
1#
#35950
1!
0#
#36000
0!
1#
#36050
1!
0#
#36100
0!
1#
#36150
1!
0#
#36200
0!
1#
#36250
1!
0#
#36300
0!
1#
#36350
1!
0#
#36400
0!
1#
#36450
1!
0#
#36500
0!
1#
#36550
1!
0#
#36600
0!
1#
#36650
1!
0#
#36700
0!
1#
#36750
1!
0#
#36800
0!
1#
#36850
1!
0#
#36900
0!
1#
#36950
1!
0#
#37000
0!
1#
#37050
1!
0#
#37100
0!
1#
#37150
1!
0#
#37200
0!
1#
#37250
1!
0#
#37300
0!
1#
#37350
1!
0#
#37400
0!
1#
#37450
1!
0#
#37500
0!
1#
#37550
1!
0#
#37600
0!
1#
#37650
1!
0#
#37700
0!
1#
#37750
1!
0#
#37800
0!
1#
#37850
1!
0#
#37900
0!
1#
#37950
1!
0#
#38000
0!
1#
#38050
1!
0#
#38100
0!
1#
#38150
1!
0#
#38200
0!
1#
#38250
1!
0#
#38300
0!
1#
#38350
1!
0#
#38400
0!
1#
#38450
1!
0#
#38500
0!
1#
#38550
1!
0#
#38600
0!
1#
#38650
1!
0#
#38700
0!
1#
#38750
1!
0#
#38800
0!
1#
#38850
1!
0#
#38900
0!
1#
#38950
1!
0#
#39000
0!
1#
#39050
1!
0#
#39100
0!
1#
#39150
1!
0#
#39200
0!
1#
#39250
1!
0#
#39300
0!
1#
#39350
1!
0#
#39400
0!
1#
#39450
1!
0#
#39500
0!
1#
#39550
1!
0#
#39600
0!
1#
#39650
1!
0#
#39700
0!
1#
#39750
1!
0#
#39800
0!
1#
#39850
1!
0#
#39900
0!
1#
#39950
1!
0#
#40000
0!
1#
#40050
1!
0#
#40100
0!
1#
#40150
1!
0#
#40200
0!
1#
#40250
1!
0#
#40300
0!
1#
#40350
1!
0#
#40400
0!
1#
#40450
1!
0#
#40500
0!
1#
#40550
1!
0#
#40600
0!
1#
#40650
1!
0#
#40700
0!
1#
#40750
1!
0#
#40800
0!
1#
#40850
1!
0#
#40900
0!
1#
#40950
1!
0#
#41000
0!
1#
#41050
1!
0#
#41100
0!
1#
#41150
1!
0#
#41200
0!
1#
#41250
1!
0#
#41300
0!
1#
#41350
1!
0#
#41400
0!
1#
#41450
1!
0#
#41500
0!
1#
#41550
1!
0#
#41600
0!
1#
#41650
1!
0#
#41700
0!
1#
#41750
1!
0#
#41800
0!
1#
#41850
1!
0#
#41900
0!
1#
#41950
1!
0#
#42000
0!
1#
#42050
1!
0#
#42100
0!
1#
#42150
1!
0#
#42200
0!
1#
#42250
1!
0#
#42300
0!
1#
#42350
1!
0#
#42400
0!
1#
#42450
1!
0#
#42500
0!
1#
#42550
1!
0#
#42600
0!
1#
#42650
1!
0#
#42700
0!
1#
#42750
1!
0#
#42800
0!
1#
#42850
1!
0#
#42900
0!
1#
#42950
1!
0#
#43000
0!
1#
#43050
1!
0#
#43100
0!
1#
#43150
1!
0#
#43200
0!
1#
#43250
1!
0#
#43300
0!
1#
#43350
1!
0#
#43400
0!
1#
#43450
1!
0#
#43500
0!
1#
#43550
1!
0#
#43600
0!
1#
#43650
1!
0#
#43700
0!
1#
#43750
1!
0#
#43800
0!
1#
#43850
1!
0#
#43900
0!
1#
#43950
1!
0#
#44000
0!
1#
#44050
1!
0#
#44100
0!
1#
#44150
1!
0#
#44200
0!
1#
#44250
1!
0#
#44300
0!
1#
#44350
1!
0#
#44400
0!
1#
#44450
1!
0#
#44500
0!
1#
#44550
1!
0#
#44600
0!
1#
#44650
1!
0#
#44700
0!
1#
#44750
1!
0#
#44800
0!
1#
#44850
1!
0#
#44900
0!
1#
#44950
1!
0#
#45000
0!
1#
#45050
1!
0#
#45100
0!
1#
#45150
1!
0#
#45200
0!
1#
#45250
1!
0#
#45300
0!
1#
#45350
1!
0#
#45400
0!
1#
#45450
1!
0#
#45500
0!
1#
#45550
1!
0#
#45600
0!
1#
#45650
1!
0#
#45700
0!
1#
#45750
1!
0#
#45800
0!
1#
#45850
1!
0#
#45900
0!
1#
#45950
1!
0#
#46000
0!
1#
#46050
1!
0#
#46100
0!
1#
#46150
1!
0#
#46200
0!
1#
#46250
1!
0#
#46300
0!
1#
#46350
1!
0#
#46400
0!
1#
#46450
1!
0#
#46500
0!
1#
#46550
1!
0#
#46600
0!
1#
#46650
1!
0#
#46700
0!
1#
#46750
1!
0#
#46800
0!
1#
#46850
1!
0#
#46900
0!
1#
#46950
1!
0#
#47000
0!
1#
#47050
1!
0#
#47100
0!
1#
#47150
1!
0#
#47200
0!
1#
#47250
1!
0#
#47300
0!
1#
#47350
1!
0#
#47400
0!
1#
#47450
1!
0#
#47500
0!
1#
#47550
1!
0#
#47600
0!
1#
#47650
1!
0#
#47700
0!
1#
#47750
1!
0#
#47800
0!
1#
#47850
1!
0#
#47900
0!
1#
#47950
1!
0#
#48000
0!
1#
#48050
1!
0#
#48100
0!
1#
#48150
1!
0#
#48200
0!
1#
#48250
1!
0#
#48300
0!
1#
#48350
1!
0#
#48400
0!
1#
#48450
1!
0#
#48500
0!
1#
#48550
1!
0#
#48600
0!
1#
#48650
1!
0#
#48700
0!
1#
#48750
1!
0#
#48800
0!
1#
#48850
1!
0#
#48900
0!
1#
#48950
1!
0#
#49000
0!
1#
#49050
1!
0#
#49100
0!
1#
#49150
1!
0#
#49200
0!
1#
#49250
1!
0#
#49300
0!
1#
#49350
1!
0#
#49400
0!
1#
#49450
1!
0#
#49500
0!
1#
#49550
1!
0#
#49600
0!
1#
#49650
1!
0#
#49700
0!
1#
#49750
1!
0#
#49800
0!
1#
#49850
1!
0#
#49900
0!
1#
#49950
1!
0#
#50000
0!
1#
#50050
1!
0#
#50100
0!
1#
#50150
1!
0#
#50200
0!
1#
#50250
1!
0#
#50300
0!
1#
#50350
1!
0#
#50400
0!
1#
#50450
1!
0#
#50500
0!
1#
#50550
1!
0#
#50600
0!
1#
#50650
1!
0#
#50700
0!
1#
#50750
1!
0#
#50800
0!
1#
#50850
1!
0#
#50900
0!
1#
#50950
1!
0#
#51000
0!
1#
#51050
1!
0#
#51100
0!
1#
#51150
1!
0#
#51200
0!
1#
#51250
1!
0#
#51300
0!
1#
#51350
1!
0#
#51400
0!
1#
#51450
1!
0#
#51500
0!
1#
#51550
1!
0#
#51600
0!
1#
#51650
1!
0#
#51700
0!
1#
#51750
1!
0#
#51800
0!
1#
#51850
1!
0#
#51900
0!
1#
#51950
1!
0#
#52000
0!
1#
#52050
1!
0#
#52100
0!
1#
#52150
1!
0#
#52200
0!
1#
#52250
1!
0#
#52300
0!
1#
#52350
1!
0#
#52400
0!
1#
#52450
1!
0#
#52500
0!
1#
#52550
1!
0#
#52600
0!
1#
#52650
1!
0#
#52700
0!
1#
#52750
1!
0#
#52800
0!
1#
#52850
1!
0#
#52900
0!
1#
#52950
1!
0#
#53000
0!
1#
#53050
1!
0#
#53100
0!
1#
#53150
1!
0#
#53200
0!
1#
#53250
1!
0#
#53300
0!
1#
#53350
1!
0#
#53400
0!
1#
#53450
1!
0#
#53500
0!
1#
#53550
1!
0#
#53600
0!
1#
#53650
1!
0#
#53700
0!
1#
#53750
1!
0#
#53800
0!
1#
#53850
1!
0#
#53900
0!
1#
#53950
1!
0#
#54000
0!
1#
#54050
1!
0#
#54100
0!
1#
#54150
1!
0#
#54200
0!
1#
#54250
1!
0#
#54300
0!
1#
#54350
1!
0#
#54400
0!
1#
#54450
1!
0#
#54500
0!
1#
#54550
1!
0#
#54600
0!
1#
#54650
1!
0#
#54700
0!
1#
#54750
1!
0#
#54800
0!
1#
#54850
1!
0#
#54900
0!
1#
#54950
1!
0#
#55000
0!
1#
#55050
1!
0#
#55100
0!
1#
#55150
1!
0#
#55200
0!
1#
#55250
1!
0#
#55300
0!
1#
#55350
1!
0#
#55400
0!
1#
#55450
1!
0#
#55500
0!
1#
#55550
1!
0#
#55600
0!
1#
#55650
1!
0#
#55700
0!
1#
#55750
1!
0#
#55800
0!
1#
#55850
1!
0#
#55900
0!
1#
#55950
1!
0#
#56000
0!
1#
#56050
1!
0#
#56100
0!
1#
#56150
1!
0#
#56200
0!
1#
#56250
1!
0#
#56300
0!
1#
#56350
1!
0#
#56400
0!
1#
#56450
1!
0#
#56500
0!
1#
#56550
1!
0#
#56600
0!
1#
#56650
1!
0#
#56700
0!
1#
#56750
1!
0#
#56800
0!
1#
#56850
1!
0#
#56900
0!
1#
#56950
1!
0#
#57000
0!
1#
#57050
1!
0#
#57100
0!
1#
#57150
1!
0#
#57200
0!
1#
#57250
1!
0#
#57300
0!
1#
#57350
1!
0#
#57400
0!
1#
#57450
1!
0#
#57500
0!
1#
#57550
1!
0#
#57600
0!
1#
#57650
1!
0#
#57700
0!
1#
#57750
1!
0#
#57800
0!
1#
#57850
1!
0#
#57900
0!
1#
#57950
1!
0#
#58000
0!
1#
#58050
1!
0#
#58100
0!
1#
#58150
1!
0#
#58200
0!
1#
#58250
1!
0#
#58300
0!
1#
#58350
1!
0#
#58400
0!
1#
#58450
1!
0#
#58500
0!
1#
#58550
1!
0#
#58600
0!
1#
#58650
1!
0#
#58700
0!
1#
#58750
1!
0#
#58800
0!
1#
#58850
1!
0#
#58900
0!
1#
#58950
1!
0#
#59000
0!
1#
#59050
1!
0#
#59100
0!
1#
#59150
1!
0#
#59200
0!
1#
#59250
1!
0#
#59300
0!
1#
#59350
1!
0#
#59400
0!
1#
#59450
1!
0#
#59500
0!
1#
#59550
1!
0#
#59600
0!
1#
#59650
1!
0#
#59700
0!
1#
#59750
1!
0#
#59800
0!
1#
#59850
1!
0#
#59900
0!
1#
#59950
1!
0#
#60000
0!
1#
#60050
1!
0#
#60100
0!
1#
#60150
1!
0#
#60200
0!
1#
#60250
1!
0#
#60300
0!
1#
#60350
1!
0#
#60400
0!
1#
#60450
1!
0#
#60500
0!
1#
#60550
1!
0#
#60600
0!
1#
#60650
1!
0#
#60700
0!
1#
#60750
1!
0#
#60800
0!
1#
#60850
1!
0#
#60900
0!
1#
#60950
1!
0#
#61000
0!
1#
#61050
1!
0#
#61100
0!
1#
#61150
1!
0#
#61200
0!
1#
#61250
1!
0#
#61300
0!
1#
#61350
1!
0#
#61400
0!
1#
#61450
1!
0#
#61500
0!
1#
#61550
1!
0#
#61600
0!
1#
#61650
1!
0#
#61700
0!
1#
#61750
1!
0#
#61800
0!
1#
#61850
1!
0#
#61900
0!
1#
#61950
1!
0#
#62000
0!
1#
#62050
1!
0#
#62100
0!
1#
#62150
1!
0#
#62200
0!
1#
#62250
1!
0#
#62300
0!
1#
#62350
1!
0#
#62400
0!
1#
#62450
1!
0#
#62500
0!
1#
#62550
1!
0#
#62600
0!
1#
#62650
1!
0#
#62700
0!
1#
#62750
1!
0#
#62800
0!
1#
#62850
1!
0#
#62900
0!
1#
#62950
1!
0#
#63000
0!
1#
#63050
1!
0#
#63100
0!
1#
#63150
1!
0#
#63200
0!
1#
#63250
1!
0#
#63300
0!
1#
#63350
1!
0#
#63400
0!
1#
#63450
1!
0#
#63500
0!
1#
#63550
1!
0#
#63600
0!
1#
#63650
1!
0#
#63700
0!
1#
#63750
1!
0#
#63800
0!
1#
#63850
1!
0#
#63900
0!
1#
#63950
1!
0#
#64000
0!
1#
#64050
1!
0#
#64100
0!
1#
#64150
1!
0#
#64200
0!
1#
#64250
1!
0#
#64300
0!
1#
#64350
1!
0#
#64400
0!
1#
#64450
1!
0#
#64500
0!
1#
#64550
1!
0#
#64600
0!
1#
#64650
1!
0#
#64700
0!
1#
#64750
1!
0#
#64800
0!
1#
#64850
1!
0#
#64900
0!
1#
#64950
1!
0#
#65000
0!
1#
#65050
1!
0#
#65100
0!
1#
#65150
1!
0#
#65200
0!
1#
