Semaforo_1/simulation/qsim/Semaforo.msim.vcd
$comment
	File created using the following command:
		vcd file Semaforo.msim.vcd -direction
$end
$date
	Mon May 22 23:46:06 2023
$end
$version
	ModelSim Version 10.1d
$end
$timescale
	1ps
$end
$scope module TEMPORIZADOR_vlg_vec_tst $end
$var reg 1 ! CHIP_SELECT $end
$var reg 1 " CLK_I $end
$var reg 5 # N_BITS [4:0] $end
$var reg 5 $ TEMPO [4:0] $end
$var wire 1 % CLK_O $end
$var wire 1 & SINAL_FINAL $end
$var wire 1 ' sampler $end
$scope module i1 $end
$var wire 1 ( gnd $end
$var wire 1 ) vcc $end
$var wire 1 * unknown $end
$var tri1 1 + devclrn $end
$var tri1 1 , devpor $end
$var tri1 1 - devoe $end
$var wire 1 . Add0~6_combout $end
$var wire 1 / Add0~10_combout $end
$var wire 1 0 Add0~12_combout $end
$var wire 1 1 Add0~20_combout $end
$var wire 1 2 Add0~24_combout $end
$var wire 1 3 Add0~44_combout $end
$var wire 1 4 Add0~48_combout $end
$var wire 1 5 Add0~56_combout $end
$var wire 1 6 Div0|auto_generated|divider|divider|add_sub_2_result_int[2]~4_combout $end
$var wire 1 7 Div0|auto_generated|divider|divider|add_sub_3_result_int[2]~4_combout $end
$var wire 1 8 Add1~2_combout $end
$var wire 1 9 Add1~10_combout $end
$var wire 1 : Add1~24_combout $end
$var wire 1 ; Add1~38_combout $end
$var wire 1 < Add1~48_combout $end
$var wire 1 = Add1~61 $end
$var wire 1 > Add1~62_combout $end
$var wire 1 ? Equal1~0_combout $end
$var wire 1 @ Equal1~1_combout $end
$var wire 1 A Equal1~2_combout $end
$var wire 1 B Equal1~3_combout $end
$var wire 1 C Equal1~4_combout $end
$var wire 1 D Add2~0_combout $end
$var wire 1 E Div0|auto_generated|divider|divider|StageOut[17]~7_combout $end
$var wire 1 F Equal0~0_combout $end
$var wire 1 G Equal0~1_combout $end
$var wire 1 H Equal0~2_combout $end
$var wire 1 I Equal0~3_combout $end
$var wire 1 J Equal0~4_combout $end
$var wire 1 K Equal0~9_combout $end
$var wire 1 L CONTADOR_INTEGER~2_combout $end
$var wire 1 M CONTADOR_INTEGER~3_combout $end
$var wire 1 N CLK_I~combout $end
$var wire 1 O CLK_I~clkctrl_outclk $end
$var wire 1 P CONTADOR_BINARY~3_combout $end
$var wire 1 Q CHIP_SELECT~combout $end
$var wire 1 R CONTADOR_INTEGER~0_combout $end
$var wire 1 S Add0~0_combout $end
$var wire 1 T CONTADOR_INTEGER~1_combout $end
$var wire 1 U Add0~1 $end
$var wire 1 V Add0~2_combout $end
$var wire 1 W Add0~3 $end
$var wire 1 X Add0~4_combout $end
$var wire 1 Y Add0~5 $end
$var wire 1 Z Add0~7 $end
$var wire 1 [ Add0~8_combout $end
$var wire 1 \ Add0~9 $end
$var wire 1 ] Add0~11 $end
$var wire 1 ^ Add0~13 $end
$var wire 1 _ Add0~14_combout $end
$var wire 1 ` CONTADOR_INTEGER~4_combout $end
$var wire 1 a Add0~15 $end
$var wire 1 b Add0~16_combout $end
$var wire 1 c CONTADOR_INTEGER~5_combout $end
$var wire 1 d Add0~17 $end
$var wire 1 e Add0~18_combout $end
$var wire 1 f CONTADOR_INTEGER~6_combout $end
$var wire 1 g Add0~19 $end
$var wire 1 h Add0~21 $end
$var wire 1 i Add0~22_combout $end
$var wire 1 j Add0~23 $end
$var wire 1 k Add0~25 $end
$var wire 1 l Add0~26_combout $end
$var wire 1 m Add0~27 $end
$var wire 1 n Add0~28_combout $end
$var wire 1 o Add0~29 $end
$var wire 1 p Add0~30_combout $end
$var wire 1 q Add0~31 $end
$var wire 1 r Add0~32_combout $end
$var wire 1 s Add0~33 $end
$var wire 1 t Add0~34_combout $end
$var wire 1 u Add0~35 $end
$var wire 1 v Add0~36_combout $end
$var wire 1 w Add0~37 $end
$var wire 1 x Add0~39 $end
$var wire 1 y Add0~40_combout $end
$var wire 1 z Add0~41 $end
$var wire 1 { Add0~43 $end
$var wire 1 | Add0~45 $end
$var wire 1 } Add0~46_combout $end
$var wire 1 ~ Add0~47 $end
$var wire 1 !! Add0~49 $end
$var wire 1 "! Add0~50_combout $end
$var wire 1 #! Add0~51 $end
$var wire 1 $! Add0~53 $end
$var wire 1 %! Add0~54_combout $end
$var wire 1 &! Add0~52_combout $end
$var wire 1 '! Equal1~8_combout $end
$var wire 1 (! Add0~42_combout $end
$var wire 1 )! Equal1~6_combout $end
$var wire 1 *! Add0~38_combout $end
$var wire 1 +! Equal1~5_combout $end
$var wire 1 ,! Equal1~7_combout $end
$var wire 1 -! Add0~55 $end
$var wire 1 .! Add0~57 $end
$var wire 1 /! Add0~58_combout $end
$var wire 1 0! Add0~59 $end
$var wire 1 1! Add0~60_combout $end
$var wire 1 2! Add0~61 $end
$var wire 1 3! Add0~62_combout $end
$var wire 1 4! Equal1~9_combout $end
$var wire 1 5! Equal1~10_combout $end
$var wire 1 6! CONTADOR_BINARY[4]~1_combout $end
$var wire 1 7! CONTADOR_BINARY~5_combout $end
$var wire 1 8! Equal2~3_combout $end
$var wire 1 9! Equal2~4_combout $end
$var wire 1 :! CONTADOR_BINARY~4_combout $end
$var wire 1 ;! CONTADOR_BINARY~0_combout $end
$var wire 1 <! Equal2~2_combout $end
$var wire 1 =! CONTADOR_BINARY~2_combout $end
$var wire 1 >! Equal2~0_combout $end
$var wire 1 ?! Equal2~1_combout $end
$var wire 1 @! SINAL_FINAL~2_combout $end
$var wire 1 A! SINAL_FINAL~reg0_regout $end
$var wire 1 B! Div0|auto_generated|divider|divider|selnose[6]~1_combout $end
$var wire 1 C! Div0|auto_generated|divider|divider|StageOut[5]~2_combout $end
$var wire 1 D! Div0|auto_generated|divider|divider|add_sub_2_result_int[0]~1 $end
$var wire 1 E! Div0|auto_generated|divider|divider|add_sub_2_result_int[1]~2_combout $end
$var wire 1 F! Div0|auto_generated|divider|divider|add_sub_2_result_int[1]~3 $end
$var wire 1 G! Div0|auto_generated|divider|divider|add_sub_2_result_int[2]~5 $end
$var wire 1 H! Div0|auto_generated|divider|divider|add_sub_2_result_int[3]~6_combout $end
$var wire 1 I! Div0|auto_generated|divider|divider|StageOut[11]~4_combout $end
$var wire 1 J! Div0|auto_generated|divider|divider|add_sub_2_result_int[0]~0_combout $end
$var wire 1 K! Div0|auto_generated|divider|divider|StageOut[10]~5_combout $end
$var wire 1 L! Div0|auto_generated|divider|divider|add_sub_3_result_int[0]~1 $end
$var wire 1 M! Div0|auto_generated|divider|divider|add_sub_3_result_int[1]~3 $end
$var wire 1 N! Div0|auto_generated|divider|divider|add_sub_3_result_int[2]~5 $end
$var wire 1 O! Div0|auto_generated|divider|divider|add_sub_3_result_int[3]~6_combout $end
$var wire 1 P! Div0|auto_generated|divider|divider|selnose[0]~0_combout $end
$var wire 1 Q! Div0|auto_generated|divider|divider|StageOut[6]~0_combout $end
$var wire 1 R! Div0|auto_generated|divider|divider|StageOut[6]~1_combout $end
$var wire 1 S! Div0|auto_generated|divider|divider|selnose[12]~2_combout $end
$var wire 1 T! Div0|auto_generated|divider|divider|StageOut[12]~3_combout $end
$var wire 1 U! Div0|auto_generated|divider|divider|StageOut[18]~6_combout $end
$var wire 1 V! Div0|auto_generated|divider|divider|add_sub_3_result_int[1]~2_combout $end
$var wire 1 W! Div0|auto_generated|divider|divider|StageOut[16]~8_combout $end
$var wire 1 X! Div0|auto_generated|divider|divider|add_sub_3_result_int[0]~0_combout $end
$var wire 1 Y! Div0|auto_generated|divider|divider|add_sub_3_result_int[3]~7 $end
$var wire 1 Z! Div0|auto_generated|divider|divider|add_sub_3_result_int[4]~8_combout $end
$var wire 1 [! Div0|auto_generated|divider|divider|StageOut[15]~9_combout $end
$var wire 1 \! Div0|auto_generated|divider|divider|add_sub_4_result_int[0]~1_cout $end
$var wire 1 ]! Div0|auto_generated|divider|divider|add_sub_4_result_int[1]~3_cout $end
$var wire 1 ^! Div0|auto_generated|divider|divider|add_sub_4_result_int[2]~5_cout $end
$var wire 1 _! Div0|auto_generated|divider|divider|add_sub_4_result_int[3]~7_cout $end
$var wire 1 `! Div0|auto_generated|divider|divider|add_sub_4_result_int[4]~9_cout $end
$var wire 1 a! Div0|auto_generated|divider|divider|add_sub_4_result_int[5]~10_combout $end
$var wire 1 b! CONTADOR_PERIODO~2_combout $end
$var wire 1 c! Add1~1 $end
$var wire 1 d! Add1~3 $end
$var wire 1 e! Add1~4_combout $end
$var wire 1 f! CONTADOR_PERIODO~5_combout $end
$var wire 1 g! Add1~5 $end
$var wire 1 h! Add1~6_combout $end
$var wire 1 i! CONTADOR_PERIODO~4_combout $end
$var wire 1 j! Add1~7 $end
$var wire 1 k! Add1~8_combout $end
$var wire 1 l! CONTADOR_PERIODO~3_combout $end
$var wire 1 m! Add1~9 $end
$var wire 1 n! Add1~11 $end
$var wire 1 o! Add1~13 $end
$var wire 1 p! Add1~14_combout $end
$var wire 1 q! Add1~15 $end
$var wire 1 r! Add1~17 $end
$var wire 1 s! Add1~18_combout $end
$var wire 1 t! Add1~19 $end
$var wire 1 u! Add1~21 $end
$var wire 1 v! Add1~22_combout $end
$var wire 1 w! Add1~23 $end
$var wire 1 x! Add1~25 $end
$var wire 1 y! Add1~26_combout $end
$var wire 1 z! Add1~27 $end
$var wire 1 {! Add1~28_combout $end
$var wire 1 |! Add1~29 $end
$var wire 1 }! Add1~30_combout $end
$var wire 1 ~! Add1~31 $end
$var wire 1 !" Add1~32_combout $end
$var wire 1 "" Add1~33 $end
$var wire 1 #" Add1~34_combout $end
$var wire 1 $" Add1~35 $end
$var wire 1 %" Add1~36_combout $end
$var wire 1 &" Add1~37 $end
$var wire 1 '" Add1~39 $end
$var wire 1 (" Add1~40_combout $end
$var wire 1 )" Add1~41 $end
$var wire 1 *" Add1~43 $end
$var wire 1 +" Add1~45 $end
$var wire 1 ," Add1~46_combout $end
$var wire 1 -" Add1~47 $end
$var wire 1 ." Add1~49 $end
$var wire 1 /" Add1~50_combout $end
$var wire 1 0" Add1~51 $end
$var wire 1 1" Add1~53 $end
$var wire 1 2" Add1~54_combout $end
$var wire 1 3" Add1~52_combout $end
$var wire 1 4" Equal0~5_combout $end
$var wire 1 5" Add1~16_combout $end
$var wire 1 6" Add1~20_combout $end
$var wire 1 7" Equal0~7_combout $end
$var wire 1 8" Add1~12_combout $end
$var wire 1 9" Equal0~10_combout $end
$var wire 1 :" Add1~42_combout $end
$var wire 1 ;" Add1~44_combout $end
$var wire 1 <" Equal0~8_combout $end
$var wire 1 =" Equal0~11_combout $end
$var wire 1 >" Add1~55 $end
$var wire 1 ?" Add1~57 $end
$var wire 1 @" Add1~58_combout $end
$var wire 1 A" Add1~56_combout $end
$var wire 1 B" Add1~59 $end
$var wire 1 C" Add1~60_combout $end
$var wire 1 D" Equal0~6_combout $end
$var wire 1 E" Equal0~12_combout $end
$var wire 1 F" CONTADOR_PERIODO~6_combout $end
$var wire 1 G" Add1~0_combout $end
$var wire 1 H" Equal0~13_combout $end
$var wire 1 I" SINAL_CLK~0_combout $end
$var wire 1 J" SINAL_CLK~regout $end
$var wire 1 K" CONTADOR_PERIODO [31] $end
$var wire 1 L" CONTADOR_PERIODO [30] $end
$var wire 1 M" CONTADOR_PERIODO [29] $end
$var wire 1 N" CONTADOR_PERIODO [28] $end
$var wire 1 O" CONTADOR_PERIODO [27] $end
$var wire 1 P" CONTADOR_PERIODO [26] $end
$var wire 1 Q" CONTADOR_PERIODO [25] $end
$var wire 1 R" CONTADOR_PERIODO [24] $end
$var wire 1 S" CONTADOR_PERIODO [23] $end
$var wire 1 T" CONTADOR_PERIODO [22] $end
$var wire 1 U" CONTADOR_PERIODO [21] $end
$var wire 1 V" CONTADOR_PERIODO [20] $end
$var wire 1 W" CONTADOR_PERIODO [19] $end
$var wire 1 X" CONTADOR_PERIODO [18] $end
$var wire 1 Y" CONTADOR_PERIODO [17] $end
$var wire 1 Z" CONTADOR_PERIODO [16] $end
$var wire 1 [" CONTADOR_PERIODO [15] $end
$var wire 1 \" CONTADOR_PERIODO [14] $end
$var wire 1 ]" CONTADOR_PERIODO [13] $end
$var wire 1 ^" CONTADOR_PERIODO [12] $end
$var wire 1 _" CONTADOR_PERIODO [11] $end
$var wire 1 `" CONTADOR_PERIODO [10] $end
$var wire 1 a" CONTADOR_PERIODO [9] $end
$var wire 1 b" CONTADOR_PERIODO [8] $end
$var wire 1 c" CONTADOR_PERIODO [7] $end
$var wire 1 d" CONTADOR_PERIODO [6] $end
$var wire 1 e" CONTADOR_PERIODO [5] $end
$var wire 1 f" CONTADOR_PERIODO [4] $end
$var wire 1 g" CONTADOR_PERIODO [3] $end
$var wire 1 h" CONTADOR_PERIODO [2] $end
$var wire 1 i" CONTADOR_PERIODO [1] $end
$var wire 1 j" CONTADOR_PERIODO [0] $end
$var wire 1 k" CONTADOR_INTEGER [31] $end
$var wire 1 l" CONTADOR_INTEGER [30] $end
$var wire 1 m" CONTADOR_INTEGER [29] $end
$var wire 1 n" CONTADOR_INTEGER [28] $end
$var wire 1 o" CONTADOR_INTEGER [27] $end
$var wire 1 p" CONTADOR_INTEGER [26] $end
$var wire 1 q" CONTADOR_INTEGER [25] $end
$var wire 1 r" CONTADOR_INTEGER [24] $end
$var wire 1 s" CONTADOR_INTEGER [23] $end
$var wire 1 t" CONTADOR_INTEGER [22] $end
$var wire 1 u" CONTADOR_INTEGER [21] $end
$var wire 1 v" CONTADOR_INTEGER [20] $end
$var wire 1 w" CONTADOR_INTEGER [19] $end
$var wire 1 x" CONTADOR_INTEGER [18] $end
$var wire 1 y" CONTADOR_INTEGER [17] $end
$var wire 1 z" CONTADOR_INTEGER [16] $end
$var wire 1 {" CONTADOR_INTEGER [15] $end
$var wire 1 |" CONTADOR_INTEGER [14] $end
$var wire 1 }" CONTADOR_INTEGER [13] $end
$var wire 1 ~" CONTADOR_INTEGER [12] $end
$var wire 1 !# CONTADOR_INTEGER [11] $end
$var wire 1 "# CONTADOR_INTEGER [10] $end
$var wire 1 ## CONTADOR_INTEGER [9] $end
$var wire 1 $# CONTADOR_INTEGER [8] $end
$var wire 1 %# CONTADOR_INTEGER [7] $end
$var wire 1 &# CONTADOR_INTEGER [6] $end
$var wire 1 '# CONTADOR_INTEGER [5] $end
$var wire 1 (# CONTADOR_INTEGER [4] $end
$var wire 1 )# CONTADOR_INTEGER [3] $end
$var wire 1 *# CONTADOR_INTEGER [2] $end
$var wire 1 +# CONTADOR_INTEGER [1] $end
$var wire 1 ,# CONTADOR_INTEGER [0] $end
$var wire 1 -# N_BITS~combout [4] $end
$var wire 1 .# N_BITS~combout [3] $end
$var wire 1 /# N_BITS~combout [2] $end
$var wire 1 0# N_BITS~combout [1] $end
$var wire 1 1# N_BITS~combout [0] $end
$var wire 1 2# Div0|auto_generated|divider|divider|selnose [29] $end
$var wire 1 3# Div0|auto_generated|divider|divider|selnose [28] $end
$var wire 1 4# Div0|auto_generated|divider|divider|selnose [27] $end
$var wire 1 5# Div0|auto_generated|divider|divider|selnose [26] $end
$var wire 1 6# Div0|auto_generated|divider|divider|selnose [25] $end
$var wire 1 7# Div0|auto_generated|divider|divider|selnose [24] $end
$var wire 1 8# Div0|auto_generated|divider|divider|selnose [23] $end
$var wire 1 9# Div0|auto_generated|divider|divider|selnose [22] $end
$var wire 1 :# Div0|auto_generated|divider|divider|selnose [21] $end
$var wire 1 ;# Div0|auto_generated|divider|divider|selnose [20] $end
$var wire 1 <# Div0|auto_generated|divider|divider|selnose [19] $end
$var wire 1 =# Div0|auto_generated|divider|divider|selnose [18] $end
$var wire 1 ># Div0|auto_generated|divider|divider|selnose [17] $end
$var wire 1 ?# Div0|auto_generated|divider|divider|selnose [16] $end
$var wire 1 @# Div0|auto_generated|divider|divider|selnose [15] $end
$var wire 1 A# Div0|auto_generated|divider|divider|selnose [14] $end
$var wire 1 B# Div0|auto_generated|divider|divider|selnose [13] $end
$var wire 1 C# Div0|auto_generated|divider|divider|selnose [12] $end
$var wire 1 D# Div0|auto_generated|divider|divider|selnose [11] $end
$var wire 1 E# Div0|auto_generated|divider|divider|selnose [10] $end
$var wire 1 F# Div0|auto_generated|divider|divider|selnose [9] $end
$var wire 1 G# Div0|auto_generated|divider|divider|selnose [8] $end
$var wire 1 H# Div0|auto_generated|divider|divider|selnose [7] $end
$var wire 1 I# Div0|auto_generated|divider|divider|selnose [6] $end
$var wire 1 J# Div0|auto_generated|divider|divider|selnose [5] $end
$var wire 1 K# Div0|auto_generated|divider|divider|selnose [4] $end
$var wire 1 L# Div0|auto_generated|divider|divider|selnose [3] $end
$var wire 1 M# Div0|auto_generated|divider|divider|selnose [2] $end
$var wire 1 N# Div0|auto_generated|divider|divider|selnose [1] $end
$var wire 1 O# Div0|auto_generated|divider|divider|selnose [0] $end
$var wire 1 P# CONTADOR_BINARY [4] $end
$var wire 1 Q# CONTADOR_BINARY [3] $end
$var wire 1 R# CONTADOR_BINARY [2] $end
$var wire 1 S# CONTADOR_BINARY [1] $end
$var wire 1 T# CONTADOR_BINARY [0] $end
$var wire 1 U# TEMPO~combout [4] $end
$var wire 1 V# TEMPO~combout [3] $end
$var wire 1 W# TEMPO~combout [2] $end
$var wire 1 X# TEMPO~combout [1] $end
$var wire 1 Y# TEMPO~combout [0] $end
$upscope $end
$upscope $end
$enddefinitions $end
#0
$dumpvars
1!
0"
b100 #
b110 $
1%
0&
x'
0(
1)
x*
1+
1,
1-
0.
0/
00
01
02
03
04
05
16
17
18
09
0:
0;
0<
0=
0>
0?
0@
0A
1B
0C
0D
0E
1F
0G
1H
1I
1J
0K
0L
0M
0N
0O
0P
1Q
0R
0S
1T
1U
1V
1W
0X
0Y
1Z
0[
0\
1]
0^
0_
0`
1a
0b
0c
0d
0e
0f
1g
0h
0i
1j
0k
0l
1m
0n
0o
0p
1q
0r
0s
0t
1u
0v
0w
1x
0y
0z
1{
0|
0}
1~
0!!
0"!
1#!
0$!
0%!
0&!
1'!
0(!
1)!
0*!
1+!
1,!
1-!
0.!
0/!
10!
01!
02!
03!
14!
05!
06!
07!
08!
09!
0:!
0;!
1<!
1=!
0>!
0?!
0@!
0A!
0B!
0C!
1D!
0E!
0F!
0G!
1H!
0I!
1J!
1K!
1L!
0M!
0N!
1O!
0P!
1Q!
0R!
1S!
0T!
0U!
1V!
1W!
1X!
1Y!
1Z!
1[!
1\!
0]!
1^!
0_!
1`!
0a!
1b!
1c!
1d!
0e!
0f!
0g!
0h!
0i!
1j!
0k!
0l!
0m!
1n!
0o!
0p!
1q!
0r!
0s!
1t!
0u!
0v!
1w!
0x!
0y!
1z!
0{!
0|!
0}!
1~!
0!"
0""
0#"
1$"
0%"
0&"
1'"
0("
0)"
1*"
0+"
0,"
1-"
0."
0/"
10"
01"
02"
03"
14"
05"
06"
17"
08"
09"
0:"
0;"
1<"
1="
1>"
0?"
0@"
0A"
1B"
0C"
1D"
1E"
1F"
0G"
0H"
0I"
0J"
0j"
0i"
0h"
0g"
0f"
0e"
0d"
0c"
0b"
0a"
0`"
0_"
0^"
0]"
0\"
0["
0Z"
0Y"
0X"
0W"
0V"
0U"
0T"
0S"
0R"
0Q"
0P"
0O"
0N"
0M"
0L"
0K"
0,#
0+#
0*#
0)#
0(#
0'#
0&#
0%#
0$#
0##
0"#
0!#
0~"
0}"
0|"
0{"
0z"
0y"
0x"
0w"
0v"
0u"
0t"
0s"
0r"
0q"
0p"
0o"
0n"
0m"
0l"
0k"
01#
00#
1/#
0.#
0-#
1O#
zN#
zM#
zL#
zK#
zJ#
zI#
zH#
zG#
zF#
zE#
zD#
zC#
zB#
zA#
z@#
z?#
z>#
z=#
z<#
z;#
z:#
z9#
z8#
z7#
z6#
z5#
z4#
z3#
z2#
0T#
0S#
0R#
0Q#
0P#
0Y#
1X#
1W#
0V#
0U#
$end
#18519
1"
1N
1O
0'
#37037
0"
0N
0O
1'
1,#
1+#
1i"
1j"
0U
1S
0W
0V
0d!
08
0c!
1G"
1W
1V
0T
1X
1e!
0b!
1G
1d!
18
0F"
0X
19"
1f!
1H"
0e!
1b!
0G
0="
1I"
0f!
0b!
09"
0H"
0E"
1="
0I"
1b!
1E"
#55556
1"
1N
1O
0'
#74074
0"
0N
0O
1'
0,#
0j"
1U
0S
1c!
0G"
0W
0V
1T
0d!
08
1F"
1X
1e!
0b!
1G
19"
1f!
0="
0E"
#92593
1"
1N
1O
0'
#111111
0"
0N
0O
1'
1,#
0+#
1*#
0i"
1h"
1j"
0U
1S
1W
1V
1Y
0X
1d!
18
1g!
0e!
0c!
1G"
0V
0T
0Y
1X
1.
0g!
1e!
1b!
0G
1h!
09"
0f!
08
0F"
0.
1R
0h!
19"
1f!
1i!
1K
1="
0b!
1G
0R
0i!
0K
0="
1E"
0E"
1H"
0H"
1I"
0f!
0I"
1f!
#129630
1"
1N
1O
0'
#148148
0"
0N
0O
1'
0,#
0j"
1U
0S
1c!
0G"
1V
1T
18
1F"
1b!
0G
#166667
1"
1N
1O
0'
#185185
0"
0N
0O
1'
1,#
1+#
1i"
1j"
0U
1S
0W
0V
0d!
08
0c!
1G"
1W
1V
0T
1Y
0X
1g!
0e!
0b!
1G
1d!
18
0F"
0Y
1X
1.
1h!
09"
0f!
0g!
1e!
1b!
0G
0.
1R
1i!
1K
1="
0h!
19"
1f!
0R
0="
1E"
0i!
0K
0E"
#203704
1"
1N
1O
0'
#222222
0"
0N
0O
1'
0,#
0j"
1U
0S
1c!
0G"
0W
0V
1T
0d!
08
1F"
1Y
0X
1g!
0e!
0b!
1G
1.
1h!
09"
0f!
1R
1?
1i!
1K
1="
0="
1E"
0E"
#240741
1"
1N
1O
0'
#259259
0"
0N
0O
1'
1)#
1,#
0+#
0*#
0i"
0h"
1g"
1j"
0Z
0.
0U
1S
1W
1V
0Y
1X
1d!
18
0g!
1e!
0j!
0h!
0c!
1G"
1[
0R
0?
0V
0T
0X
1Z
1.
0e!
1b!
0G
1j!
1h!
19"
1f!
1k!
0i!
0K
08
0F"
0[
1R
09"
0f!
0k!
1i!
1K
1l!
0F
0b!
1G
0l!
1F
0G
1G
#277778
1"
1N
1O
0'
#296296
0"
0N
0O
1'
0,#
0j"
1U
0S
1c!
0G"
1V
1T
1?
18
1F"
0?
1b!
0G
#314815
1"
1N
1O
0'
#333333
0"
0N
0O
1'
1,#
1+#
1i"
1j"
0U
1S
0W
0V
0d!
08
0c!
1G"
1W
1V
0T
1X
1e!
0b!
1G
1d!
18
0F"
0X
19"
1f!
0e!
1b!
0G
09"
0f!
#351852
1"
1N
1O
0'
#370370
0"
0N
0O
1'
0,#
0j"
1U
0S
1c!
0G"
0W
0V
1T
0d!
08
1F"
1X
1?
1e!
0b!
1G
0?
19"
1f!
#388889
1"
1N
1O
0'
#407407
0"
0N
0O
1'
1,#
0+#
1*#
0i"
1h"
1j"
0U
1S
1W
1V
1Y
0X
1d!
18
1g!
0e!
0c!
1G"
0V
0T
0Y
1X
0Z
0.
0g!
1e!
1b!
0G
0j!
0h!
09"
0f!
08
0F"
1Z
1.
1[
0R
1j!
1h!
19"
1f!
1k!
0i!
0K
0b!
1G
0[
1R
0k!
1i!
1K
1l!
0F
0l!
1F
0G
1G
#425926
1"
1N
1O
0'
#444444
0"
0N
0O
1'
0,#
0j"
1U
0S
1c!
0G"
1V
1T
18
1F"
1b!
0G
#462963
1"
1N
1O
0'
#481481
0"
0N
0O
1'
1,#
1+#
1i"
1j"
0U
1S
0W
0V
0d!
08
0c!
1G"
1W
1V
0T
1Y
0X
1g!
0e!
0b!
1G
1d!
18
0F"
0Y
1X
0Z
0.
0j!
0h!
09"
0f!
0g!
1e!
1b!
0G
1Z
1.
1[
0R
1k!
0i!
0K
1j!
1h!
19"
1f!
0[
1R
1l!
0F
0k!
1i!
1K
0l!
1F
#500000
1"
1N
1O
0'
#518518
0"
0N
0O
1'
0,#
0j"
1U
0S
1c!
0G"
0W
0V
1T
0d!
08
1F"
1Y
0X
1g!
0e!
0b!
1G
0Z
0.
1?
0j!
0h!
09"
0f!
1[
0R
0?
1k!
0i!
0K
1l!
0F
1="
0G
1E"
#537037
1"
1N
1O
0'
#555555
0"
0N
0O
1'
0)#
1,#
0+#
0*#
1(#
0i"
0h"
0g"
1f"
1j"
1Z
1.
0U
1S
1W
1V
0Y
1X
1\
0[
1d!
18
0g!
1e!
1j!
1h!
1m!
0k!
0c!
1G"
0\
1[
1R
0V
0T
0X
0.
1/
0e!
1b!
0h!
19"
1f!
0m!
1k!
1i!
1K
19
0l!
1F
08
0F"
0/
0R
1L
09"
0f!
0i!
0K
0="
09
1l!
0F
1G
0b!
0L
1="
0E"
0G
1H"
1E"
0H"
1I"
0l!
0I"
1l!
#574074
1"
1N
1O
0'
#592592
0"
0N
0O
1'
0,#
0j"
1U
0S
1c!
0G"
1V
1T
18
1F"
1b!
#611111
1"
1N
1O
0'
#629629
0"
0N
0O
1'
1,#
1+#
1i"
1j"
0U
1S
0W
0V
0d!
08
0c!
1G"
1W
1V
0T
1X
1e!
0b!
1d!
18
0F"
0X
19"
1f!
0e!
1b!
0="
09"
0f!
0E"
1="
1E"
#648148
1"
1N
1O
0'
#666666
0"
0N
0O
1'
0,#
0j"
1U
0S
1c!
0G"
0W
0V
1T
0d!
08
1F"
1X
1e!
0b!
19"
1f!
0="
0E"
#685185
1"
1N
1O
0'
#703703
0"
0N
0O
1'
1,#
0+#
1*#
0i"
1h"
1j"
0U
1S
1W
1V
1Y
0X
1d!
18
1g!
0e!
0c!
1G"
0V
0T
0Y
1X
1.
0g!
1e!
1b!
1h!
09"
0f!
08
0F"
0.
1R
0h!
19"
1f!
1i!
1K
1="
0b!
0R
0i!
0K
0="
1E"
0E"
#722222
1"
1N
1O
0'
#740740
0"
0N
0O
1'
0,#
0j"
1U
0S
1c!
0G"
1V
1T
18
1F"
1b!
#759259
1"
1N
1O
0'
#777777
0"
0N
0O
1'
1,#
1+#
1i"
1j"
0U
1S
0W
0V
0d!
08
0c!
1G"
1W
1V
0T
1Y
0X
1g!
0e!
0b!
1d!
18
0F"
0Y
1X
1.
1h!
09"
0f!
0g!
1e!
1b!
0.
1R
1i!
1K
1="
0h!
19"
1f!
0R
0="
1E"
0i!
0K
0E"
#796296
1"
1N
1O
0'
#814814
0"
0N
0O
1'
0,#
0j"
1U
0S
1c!
0G"
0W
0V
1T
0d!
08
1F"
1Y
0X
1g!
0e!
0b!
1.
1h!
09"
0f!
1R
1?
1i!
1K
1="
0="
1E"
0E"
#833333
1"
1N
1O
0'
#851851
0"
0N
0O
1'
1)#
1,#
0+#
0*#
0i"
0h"
1g"
1j"
0Z
0.
0U
1S
1W
1V
0Y
1X
1d!
18
0g!
1e!
0j!
0h!
0c!
1G"
1\
0[
0R
0?
0V
0T
0X
1Z
1.
0e!
1b!
1j!
1h!
19"
1f!
1m!
0k!
0i!
0K
08
0F"
1/
0\
1[
1R
09"
0f!
0m!
1k!
1i!
1K
19
0l!
1F
0b!
1L
0/
09
1l!
0F
1G
0L
0G
#870370
1"
1N
1O
0'
#888888
0"
0N
0O
1'
0,#
0j"
1U
0S
1c!
0G"
1V
1T
1?
18
1F"
0?
1b!
#907407
1"
1N
1O
0'
#925925
0"
0N
0O
1'
1,#
1+#
1i"
1j"
0U
1S
0W
0V
0d!
08
0c!
1G"
1W
1V
0T
1X
1e!
0b!
1d!
18
0F"
0X
19"
1f!
0e!
1b!
09"
0f!
#944444
1"
1N
1O
0'
#962962
0"
0N
0O
1'
0,#
0j"
1U
0S
1c!
0G"
0W
0V
1T
0d!
08
1F"
1X
1?
1e!
0b!
0?
19"
1f!
#981481
1"
1N
1O
0'
#999999
0"
0N
0O
1'
1,#
0+#
1*#
0i"
1h"
1j"
0U
1S
1W
1V
1Y
0X
1d!
18
1g!
0e!
0c!
1G"
0V
0T
0Y
1X
0Z
0.
0g!
1e!
1b!
0j!
0h!
09"
0f!
08
0F"
1Z
1.
1\
0[
0R
1j!
1h!
19"
1f!
1m!
0k!
0i!
0K
0b!
0\
1[
1R
1/
0m!
1k!
1i!
1K
19
0l!
1F
0/
1L
09
1l!
0F
1G
0L
0G
