Relogio_com_maquinaestado/Relogio_digital_1/simulation/qsim/Relogio_digital_1.msim.vcd
$comment
	File created using the following command:
		vcd file Relogio_digital_1.msim.vcd -direction
$end
$date
	Sat May 06 13:16:13 2023
$end
$version
	ModelSim Version 10.1d
$end
$timescale
	1ps
$end
$scope module BLOCO_CONTADOR23_vlg_vec_tst $end
$var reg 1 ! CLK_IN $end
$var wire 1 " SAIDA [6] $end
$var wire 1 # SAIDA [5] $end
$var wire 1 $ SAIDA [4] $end
$var wire 1 % SAIDA [3] $end
$var wire 1 & SAIDA [2] $end
$var wire 1 ' SAIDA [1] $end
$var wire 1 ( SAIDA [0] $end
$var wire 1 ) sampler $end
$scope module i1 $end
$var wire 1 * gnd $end
$var wire 1 + vcc $end
$var wire 1 , unknown $end
$var tri1 1 - devclrn $end
$var tri1 1 . devpor $end
$var tri1 1 / devoe $end
$var wire 1 0 Add1~0_combout $end
$var wire 1 1 PROCESSO_CONTADOR:ACUMULADOR_DEZENA[2]~0_combout $end
$var wire 1 2 CLK_IN~combout $end
$var wire 1 3 CLK_IN~clkctrl_outclk $end
$var wire 1 4 PROCESSO_CONTADOR:ACUMULADOR_DEZENA[1]~0_combout $end
$var wire 1 5 PROCESSO_CONTADOR:ACUMULADOR_DEZENA[1]~regout $end
$var wire 1 6 PROCESSO_CONTADOR:ACUMULADOR_UNIDADE[0]~0_combout $end
$var wire 1 7 ACUMULADOR_UNIDADE~3_combout $end
$var wire 1 8 PROCESSO_CONTADOR:ACUMULADOR_UNIDADE[2]~regout $end
$var wire 1 9 Add1~1_combout $end
$var wire 1 : ACUMULADOR_UNIDADE~4_combout $end
$var wire 1 ; PROCESSO_CONTADOR:ACUMULADOR_UNIDADE[3]~regout $end
$var wire 1 < PROCESSO_CONTADOR:ACUMULADOR_UNIDADE[0]~1_combout $end
$var wire 1 = PROCESSO_CONTADOR:ACUMULADOR_DEZENA[2]~1_combout $end
$var wire 1 > PROCESSO_CONTADOR:ACUMULADOR_DEZENA[2]~regout $end
$var wire 1 ? ACUMULADOR_UNIDADE~1_combout $end
$var wire 1 @ ACUMULADOR_UNIDADE~2_combout $end
$var wire 1 A PROCESSO_CONTADOR:ACUMULADOR_UNIDADE[1]~regout $end
$var wire 1 B LessThan0~0_combout $end
$var wire 1 C ACUMULADOR_UNIDADE~0_combout $end
$var wire 1 D PROCESSO_CONTADOR:ACUMULADOR_UNIDADE[0]~regout $end
$var wire 1 E PROCESSO_CONTADOR:ACUMULADOR_DEZENA[0]~0_combout $end
$var wire 1 F PROCESSO_CONTADOR:ACUMULADOR_DEZENA[0]~regout $end
$upscope $end
$upscope $end
$enddefinitions $end
#0
$dumpvars
0!
0(
0'
0&
0%
0$
0#
0"
x)
0*
1+
x,
1-
1.
1/
00
01
02
03
04
05
16
07
08
09
0:
0;
1<
0=
0>
0?
0@
0A
1B
1C
0D
0E
0F
$end
#7692
1!
12
13
0)
#15384
0!
02
03
1)
1D
0C
1@
1(
#23076
1!
12
13
0)
#30768
0!
02
03
1)
1A
0D
1C
1'
0(
#38460
1!
12
13
0)
#46152
0!
02
03
1)
1D
0C
0@
0<
10
1(
17
#53844
1!
12
13
0)
#61536
0!
02
03
1)
18
0A
0D
1C
1&
0'
0(
#69228
1!
12
13
0)
#76920
0!
02
03
1)
1D
0C
1@
1(
#84612
1!
12
13
0)
#92304
0!
02
03
1)
1A
0D
1C
1'
0(
#99996
1!
12
13
0)
#107688
0!
02
03
1)
1D
0C
0@
19
00
1(
1:
07
#115380
1!
12
13
0)
#123072
0!
02
03
1)
08
1;
0A
0D
1C
0&
1%
0'
0(
#130764
1!
12
13
0)
#138456
0!
02
03
1)
1D
0C
0B
1@
1(
1E
0@
0:
#146148
1!
12
13
0)
#153840
0!
02
03
1)
0;
0D
1F
1B
1<
09
0E
14
0%
0(
1$
1E
1C
04
#161532
1!
12
13
0)
#169224
0!
02
03
1)
1D
0C
1@
1(
#176916
1!
12
13
0)
#184608
0!
02
03
1)
1A
0D
1C
1'
0(
#192300
1!
12
13
0)
#199992
0!
02
03
1)
1D
0C
0@
0<
10
1(
17
#207684
1!
12
13
0)
#215376
0!
02
03
1)
18
0A
0D
1C
1&
0'
0(
#223068
1!
12
13
0)
#230760
0!
02
03
1)
1D
0C
1@
1(
#238452
1!
12
13
0)
#246144
0!
02
03
1)
1A
0D
1C
1'
0(
#253836
1!
12
13
0)
#261528
0!
02
03
1)
1D
0C
0@
19
00
1(
1:
07
#269220
1!
12
13
0)
#276912
0!
02
03
1)
08
1;
0A
0D
1C
0&
1%
0'
0(
#284604
1!
12
13
0)
#292296
0!
02
03
1)
1D
0C
0B
1@
1(
0E
0@
0:
14
#299988
1!
12
13
0)
#307680
0!
02
03
1)
15
0;
0D
0F
1?
06
1B
1<
09
1E
1#
0%
0(
0$
0E
1C
0?
#315372
1!
12
13
0)
#323064
0!
02
03
1)
1D
0C
1@
1(
#330756
1!
12
13
0)
#338448
0!
02
03
1)
1A
0D
1C
1'
0(
#346140
1!
12
13
0)
#353832
0!
02
03
1)
1D
0C
0@
0<
10
1(
1?
04
#361524
1!
12
13
0)
#369216
0!
02
03
1)
05
0A
0D
0?
16
1<
00
0#
0'
0(
1C
#376908
1!
12
13
0)
#384600
0!
02
03
1)
1D
0C
1@
1(
#392292
1!
12
13
0)
#399984
0!
02
03
1)
1A
0D
1C
1'
0(
#407676
1!
12
13
0)
#415368
0!
02
03
1)
1D
0C
0@
0<
10
1(
17
#423060
1!
12
13
0)
#430752
0!
02
03
1)
18
0A
0D
1C
1&
0'
0(
#438444
1!
12
13
0)
#446136
0!
02
03
1)
1D
0C
1@
1(
#453828
1!
12
13
0)
#461520
0!
02
03
1)
1A
0D
1C
1'
0(
#469212
1!
12
13
0)
#476904
0!
02
03
1)
1D
0C
0@
19
00
1(
1:
07
#484596
1!
12
13
0)
#492288
0!
02
03
1)
08
1;
0A
0D
1C
0&
1%
0'
0(
#499980
1!
12
13
0)
#507672
0!
02
03
1)
1D
0C
0B
1@
1(
1E
0@
0:
#515364
1!
12
13
0)
#523056
0!
02
03
1)
0;
0D
1F
1B
1<
09
0E
14
0%
0(
1$
1E
1C
04
#530748
1!
12
13
0)
#538440
0!
02
03
1)
1D
0C
1@
1(
#546132
1!
12
13
0)
#553824
0!
02
03
1)
1A
0D
1C
1'
0(
#561516
1!
12
13
0)
#569208
0!
02
03
1)
1D
0C
0@
0<
10
1(
17
#576900
1!
12
13
0)
#584592
0!
02
03
1)
18
0A
0D
1C
1&
0'
0(
#592284
1!
12
13
0)
#599976
0!
02
03
1)
1D
0C
1@
1(
#607668
1!
12
13
0)
#615360
0!
02
03
1)
1A
0D
1C
1'
0(
#623052
1!
12
13
0)
#630744
0!
02
03
1)
1D
0C
0@
19
00
1(
1:
07
#638436
1!
12
13
0)
#646128
0!
02
03
1)
08
1;
0A
0D
1C
0&
1%
0'
0(
#653820
1!
12
13
0)
#661512
0!
02
03
1)
1D
0C
0B
1@
1(
0E
0@
0:
14
#669204
1!
12
13
0)
#676896
0!
02
03
1)
15
0;
0D
0F
1?
06
1B
1<
09
1E
1#
0%
0(
0$
0E
1C
0?
#684588
1!
12
13
0)
#692280
0!
02
03
1)
1D
0C
1@
1(
#699972
1!
12
13
0)
#707664
0!
02
03
1)
1A
0D
1C
1'
0(
#715356
1!
12
13
0)
#723048
0!
02
03
1)
1D
0C
0@
0<
10
1(
1?
04
#730740
1!
12
13
0)
#738432
0!
02
03
1)
05
0A
0D
0?
16
1<
00
0#
0'
0(
1C
#746124
1!
12
13
0)
#753816
0!
02
03
1)
1D
0C
1@
1(
#761508
1!
12
13
0)
#769200
0!
02
03
1)
1A
0D
1C
1'
0(
#776892
1!
12
13
0)
#784584
0!
02
03
1)
1D
0C
0@
0<
10
1(
17
#792276
1!
12
13
0)
#799968
0!
02
03
1)
18
0A
0D
1C
1&
0'
0(
#807660
1!
12
13
0)
#815352
0!
02
03
1)
1D
0C
1@
1(
#823044
1!
12
13
0)
#830736
0!
02
03
1)
1A
0D
1C
1'
0(
#838428
1!
12
13
0)
#846120
0!
02
03
1)
1D
0C
0@
19
00
1(
1:
07
#853812
1!
12
13
0)
#861504
0!
02
03
1)
08
1;
0A
0D
1C
0&
1%
0'
0(
#869196
1!
12
13
0)
#876888
0!
02
03
1)
1D
0C
0B
1@
1(
1E
0@
0:
#884580
1!
12
13
0)
#892272
0!
02
03
1)
0;
0D
1F
1B
1<
09
0E
14
0%
0(
1$
1E
1C
04
#899964
1!
12
13
0)
#907656
0!
02
03
1)
1D
0C
1@
1(
#915348
1!
12
13
0)
#923040
0!
02
03
1)
1A
0D
1C
1'
0(
#930732
1!
12
13
0)
#938424
0!
02
03
1)
1D
0C
0@
0<
10
1(
17
#946116
1!
12
13
0)
#953808
0!
02
03
1)
18
0A
0D
1C
1&
0'
0(
#961500
1!
12
13
0)
#969192
0!
02
03
1)
1D
0C
1@
1(
#976884
1!
12
13
0)
#984576
0!
02
03
1)
1A
0D
1C
1'
0(
#992268
1!
12
13
0)
#999960
0!
02
03
1)
1D
0C
0@
19
00
1(
1:
07
